…
Our ideal penalty value is thus 0.003764936.

``` r
final_lasso = glmnet_workflow %>% finalize_workflow(best_mnlog)
lasso_fit = fit(final_lasso, train)
```

``` r
tidy(lasso_fit)
```

```         
# A tibble: 89 × 3
   term          estimate penalty
   <chr>            <dbl>   <dbl>
 1 (Intercept)     0.328  0.00376
 2 Lot_Area        0.0765 0.00376
 3 Year_Built      0.264  0.00376
 4 Total_Bsmt_SF   0.633  0.00376
 5 Gr_Liv_Area     1.33   0.00376
 6 Full_Bath       0.477  0.00376
 7 Half_Bath       0.122  0.00376
 8 Kitchen_AbvGr  -0.770  0.00376
 9 Garage_Cars     0.660  0.00376
10 Pool_Area       0      0.00376
# ℹ 79 more rows
```
…
